{
    "/js/dashmix.app.js": "/js/dashmix.app.js",
    "/js/laravel.app.js": "/js/laravel.app.js",
    "/css/dashmix.css": "/css/dashmix.css",
    "/css/themes/xmodern.css": "/css/themes/xmodern.css",
    "/css/themes/xsmooth.css": "/css/themes/xsmooth.css",
    "/css/themes/xwork.css": "/css/themes/xwork.css"
}
